<?xml version="1.0" encoding="UTF-8"?>
<svg xmlns="http://www.w3.org/2000/svg" xmlns:xlink="http://www.w3.org/1999/xlink"
     width="650.0" height="650.0" viewBox="0 0 650.0 650.0" style="background-color:white">
<defs>
</defs>
<rect x="85" y="80.0" width="120" height="10.0" stroke="None" fill="blue" fill-opacity="0.4" />
<path d="M85,205 L85,205 L85,325 L205,325 L205,205" stroke="green" fill="green" fill-opacity="0.4" />
<path d="M85,445 L85,445 L85,565 L205,565 L205,445" stroke="green" fill="green" fill-opacity="0.4" />
<path d="M205,85 L205,85 L205,205 L325,205 L325,85" stroke="green" fill="green" fill-opacity="0.4" />
<path d="M205,325 L205,325 L205,445 L325,445 L325,325" stroke="green" fill="green" fill-opacity="0.4" />
<rect x="205" y="560.0" width="120" height="10.0" stroke="None" fill="blue" fill-opacity="0.4" />
<rect x="325" y="80.0" width="120" height="10.0" stroke="green" fill="green" fill-opacity="0.4" />
<path d="M325,205 L325,205 L325,325 L445,325 L445,205" stroke="None" fill="blue" fill-opacity="0.4" />
<path d="M325,445 L325,445 L325,565 L445,565 L445,445" stroke="green" fill="green" fill-opacity="0.4" />
<path d="M445,85 L445,85 L445,205 L565,205 L565,85" stroke="green" fill="green" fill-opacity="0.4" />
<path d="M445,325 L445,325 L445,445 L565,445 L565,325" stroke="None" fill="blue" fill-opacity="0.4" />
<rect x="445" y="560.0" width="120" height="10.0" stroke="green" fill="green" fill-opacity="0.4" />
<path d="M85,85 L85,85 L205,85 L205,205 L85,205" stroke="None" fill="red" fill-opacity="0.1" />
<path d="M325,85 L325,85 L445,85 L445,205 L325,205" stroke="None" fill="red" fill-opacity="0.1" />
<rect x="560.0" y="85" width="10.0" height="120" stroke="None" fill="red" fill-opacity="0.1" />
<rect x="80.0" y="205" width="10.0" height="120" stroke="None" fill="red" fill-opacity="0.1" />
<path d="M205,205 L205,205 L325,205 L325,325 L205,325" stroke="None" fill="red" fill-opacity="0.1" />
<path d="M445,205 L445,205 L565,205 L565,325 L445,325" stroke="None" fill="red" fill-opacity="0.1" />
<path d="M85,325 L85,325 L205,325 L205,445 L85,445" stroke="None" fill="red" fill-opacity="0.1" />
<path d="M325,325 L325,325 L445,325 L445,445 L325,445" stroke="None" fill="red" fill-opacity="0.1" />
<rect x="560.0" y="325" width="10.0" height="120" stroke="None" fill="red" fill-opacity="0.1" />
<rect x="80.0" y="445" width="10.0" height="120" stroke="None" fill="red" fill-opacity="0.1" />
<path d="M205,445 L205,445 L325,445 L325,565 L205,565" stroke="None" fill="red" fill-opacity="0.1" />
<path d="M445,445 L445,445 L565,445 L565,565 L445,565" stroke="None" fill="red" fill-opacity="0.1" />
<circle cx="85" cy="85" r="15" fill="lightgray" />
<text x="85" y="85" font-size="12" stroke="black" text-anchor="middle" dominant-baseline="central">0</text>
<circle cx="85" cy="205" r="15" fill="lightgray" />
<text x="85" y="205" font-size="12" stroke="black" text-anchor="middle" dominant-baseline="central">1</text>
<circle cx="85" cy="325" r="15" fill="lightgray" />
<text x="85" y="325" font-size="12" stroke="black" text-anchor="middle" dominant-baseline="central">2</text>
<circle cx="85" cy="445" r="15" fill="lightgray" />
<text x="85" y="445" font-size="12" stroke="black" text-anchor="middle" dominant-baseline="central">3</text>
<circle cx="85" cy="565" r="15" fill="lightgray" />
<text x="85" y="565" font-size="12" stroke="black" text-anchor="middle" dominant-baseline="central">4</text>
<circle cx="205" cy="85" r="15" fill="lightgray" />
<text x="205" y="85" font-size="12" stroke="black" text-anchor="middle" dominant-baseline="central">5</text>
<circle cx="205" cy="205" r="15" fill="yellow" />
<text x="205" y="205" font-size="12" stroke="black" text-anchor="middle" dominant-baseline="central">6</text>
<circle cx="205" cy="325" r="15" fill="lightgray" />
<text x="205" y="325" font-size="12" stroke="black" text-anchor="middle" dominant-baseline="central">7</text>
<circle cx="205" cy="445" r="15" fill="yellow" />
<text x="205" y="445" font-size="12" stroke="black" text-anchor="middle" dominant-baseline="central">8</text>
<circle cx="205" cy="565" r="15" fill="lightgray" />
<text x="205" y="565" font-size="12" stroke="black" text-anchor="middle" dominant-baseline="central">9</text>
<circle cx="325" cy="85" r="15" fill="lightgray" />
<text x="325" y="85" font-size="12" stroke="black" text-anchor="middle" dominant-baseline="central">10</text>
<circle cx="325" cy="205" r="15" fill="lightgray" />
<text x="325" y="205" font-size="12" stroke="black" text-anchor="middle" dominant-baseline="central">11</text>
<circle cx="325" cy="325" r="15" fill="lightgray" />
<text x="325" y="325" font-size="12" stroke="black" text-anchor="middle" dominant-baseline="central">12</text>
<circle cx="325" cy="445" r="15" fill="lightgray" />
<text x="325" y="445" font-size="12" stroke="black" text-anchor="middle" dominant-baseline="central">13</text>
<circle cx="325" cy="565" r="15" fill="lightgray" />
<text x="325" y="565" font-size="12" stroke="black" text-anchor="middle" dominant-baseline="central">14</text>
<circle cx="445" cy="85" r="15" fill="yellow" />
<text x="445" y="85" font-size="12" stroke="black" text-anchor="middle" dominant-baseline="central">15</text>
<circle cx="445" cy="205" r="15" fill="lightgray" />
<text x="445" y="205" font-size="12" stroke="black" text-anchor="middle" dominant-baseline="central">16</text>
<circle cx="445" cy="325" r="15" fill="lightgray" />
<text x="445" y="325" font-size="12" stroke="black" text-anchor="middle" dominant-baseline="central">17</text>
<circle cx="445" cy="445" r="15" fill="lightgray" />
<text x="445" y="445" font-size="12" stroke="black" text-anchor="middle" dominant-baseline="central">18</text>
<circle cx="445" cy="565" r="15" fill="yellow" />
<text x="445" y="565" font-size="12" stroke="black" text-anchor="middle" dominant-baseline="central">19</text>
<circle cx="565" cy="85" r="15" fill="lightgray" />
<text x="565" y="85" font-size="12" stroke="black" text-anchor="middle" dominant-baseline="central">20</text>
<circle cx="565" cy="205" r="15" fill="lightgray" />
<text x="565" y="205" font-size="12" stroke="black" text-anchor="middle" dominant-baseline="central">21</text>
<circle cx="565" cy="325" r="15" fill="lightgray" />
<text x="565" y="325" font-size="12" stroke="black" text-anchor="middle" dominant-baseline="central">22</text>
<circle cx="565" cy="445" r="15" fill="lightgray" />
<text x="565" y="445" font-size="12" stroke="black" text-anchor="middle" dominant-baseline="central">23</text>
<circle cx="565" cy="565" r="15" fill="lightgray" />
<text x="565" y="565" font-size="12" stroke="black" text-anchor="middle" dominant-baseline="central">24</text>
</svg>