<?xml version="1.0" encoding="UTF-8"?>
<svg xmlns="http://www.w3.org/2000/svg" xmlns:xlink="http://www.w3.org/1999/xlink"
     width="1170.0" height="390.0" viewBox="0 0 1170.0 390.0" style="background-color:white">
<defs>
</defs>
<path d="M85,85 L85,85 L85,205 L205,205 L205,85" stroke="green" fill="green" fill-opacity="0.4" />
<rect x="85" y="320.0" width="120" height="10.0" stroke="green" fill="green" fill-opacity="0.4" />
<path d="M205,85 L205,85 L205,205 L325,205 L325,85" stroke="None" fill="blue" fill-opacity="0.4" />
<rect x="205" y="320.0" width="120" height="10.0" stroke="green" fill="green" fill-opacity="0.4" />
<path d="M325,85 L325,85 L325,205 L445,205 L445,85" stroke="green" fill="green" fill-opacity="0.4" />
<rect x="325" y="320.0" width="120" height="10.0" stroke="None" fill="blue" fill-opacity="0.4" />
<path d="M445,85 L445,85 L445,205 L565,205 L565,85" stroke="None" fill="blue" fill-opacity="0.4" />
<rect x="445" y="320.0" width="120" height="10.0" stroke="green" fill="green" fill-opacity="0.4" />
<path d="M565,85 L565,85 L565,205 L685,205 L685,85" stroke="None" fill="blue" fill-opacity="0.4" />
<rect x="565" y="320.0" width="120" height="10.0" stroke="green" fill="green" fill-opacity="0.4" />
<path d="M685,85 L685,85 L685,205 L805,205 L805,85" stroke="None" fill="blue" fill-opacity="0.4" />
<rect x="685" y="320.0" width="120" height="10.0" stroke="None" fill="blue" fill-opacity="0.4" />
<path d="M805,85 L805,85 L805,205 L925,205 L925,85" stroke="None" fill="blue" fill-opacity="0.4" />
<rect x="805" y="320.0" width="120" height="10.0" stroke="None" fill="blue" fill-opacity="0.4" />
<path d="M925,85 L925,85 L925,205 L1045,205 L1045,85" stroke="None" fill="blue" fill-opacity="0.4" />
<rect x="925" y="320.0" width="120" height="10.0" stroke="None" fill="blue" fill-opacity="0.4" />
<rect x="80.0" y="85" width="10.0" height="120" stroke="None" fill="red" fill-opacity="0.1" />
<rect x="200.0" y="85" width="10.0" height="120" stroke="None" fill="red" fill-opacity="0.1" />
<rect x="320.0" y="85" width="10.0" height="120" stroke="None" fill="red" fill-opacity="0.1" />
<rect x="440.0" y="85" width="10.0" height="120" stroke="None" fill="red" fill-opacity="0.1" />
<rect x="560.0" y="85" width="10.0" height="120" stroke="None" fill="red" fill-opacity="0.1" />
<rect x="680.0" y="85" width="10.0" height="120" stroke="None" fill="red" fill-opacity="0.1" />
<rect x="800.0" y="85" width="10.0" height="120" stroke="None" fill="red" fill-opacity="0.1" />
<rect x="920.0" y="85" width="10.0" height="120" stroke="None" fill="red" fill-opacity="0.1" />
<rect x="1040.0" y="85" width="10.0" height="120" stroke="None" fill="red" fill-opacity="0.1" />
<path d="M85,205 L85,205 L205,205 L325,205 L445,205 L565,205 L685,205 L805,205 L925,205 L1045,205 L1045,325 L925,325 L805,325 L685,325 L565,325 L445,325 L325,325 L205,325 L85,325" stroke="None" fill="red" fill-opacity="0.1" />
<circle cx="85" cy="85" r="15" fill="lightgray" />
<text x="85" y="85" font-size="12" stroke="black" text-anchor="middle" dominant-baseline="central">0</text>
<circle cx="85" cy="205" r="15" fill="lightgray" />
<text x="85" y="205" font-size="12" stroke="black" text-anchor="middle" dominant-baseline="central">1</text>
<circle cx="85" cy="325" r="15" fill="lightgray" />
<text x="85" y="325" font-size="12" stroke="black" text-anchor="middle" dominant-baseline="central">2</text>
<circle cx="205" cy="85" r="15" fill="yellow" />
<text x="205" y="85" font-size="12" stroke="black" text-anchor="middle" dominant-baseline="central">3</text>
<circle cx="205" cy="205" r="15" fill="lightgray" />
<text x="205" y="205" font-size="12" stroke="black" text-anchor="middle" dominant-baseline="central">4</text>
<circle cx="205" cy="325" r="15" fill="yellow" />
<text x="205" y="325" font-size="12" stroke="black" text-anchor="middle" dominant-baseline="central">5</text>
<circle cx="325" cy="85" r="15" fill="yellow" />
<text x="325" y="85" font-size="12" stroke="black" text-anchor="middle" dominant-baseline="central">6</text>
<circle cx="325" cy="205" r="15" fill="lightgray" />
<text x="325" y="205" font-size="12" stroke="black" text-anchor="middle" dominant-baseline="central">7</text>
<circle cx="325" cy="325" r="15" fill="lightgray" />
<text x="325" y="325" font-size="12" stroke="black" text-anchor="middle" dominant-baseline="central">8</text>
<circle cx="445" cy="85" r="15" fill="lightgray" />
<text x="445" y="85" font-size="12" stroke="black" text-anchor="middle" dominant-baseline="central">9</text>
<circle cx="445" cy="205" r="15" fill="lightgray" />
<text x="445" y="205" font-size="12" stroke="black" text-anchor="middle" dominant-baseline="central">10</text>
<circle cx="445" cy="325" r="15" fill="lightgray" />
<text x="445" y="325" font-size="12" stroke="black" text-anchor="middle" dominant-baseline="central">11</text>
<circle cx="565" cy="85" r="15" fill="lightgray" />
<text x="565" y="85" font-size="12" stroke="black" text-anchor="middle" dominant-baseline="central">12</text>
<circle cx="565" cy="205" r="15" fill="lightgray" />
<text x="565" y="205" font-size="12" stroke="black" text-anchor="middle" dominant-baseline="central">13</text>
<circle cx="565" cy="325" r="15" fill="yellow" />
<text x="565" y="325" font-size="12" stroke="black" text-anchor="middle" dominant-baseline="central">14</text>
<circle cx="685" cy="85" r="15" fill="lightgray" />
<text x="685" y="85" font-size="12" stroke="black" text-anchor="middle" dominant-baseline="central">15</text>
<circle cx="685" cy="205" r="15" fill="lightgray" />
<text x="685" y="205" font-size="12" stroke="black" text-anchor="middle" dominant-baseline="central">16</text>
<circle cx="685" cy="325" r="15" fill="lightgray" />
<text x="685" y="325" font-size="12" stroke="black" text-anchor="middle" dominant-baseline="central">17</text>
<circle cx="805" cy="85" r="15" fill="lightgray" />
<text x="805" y="85" font-size="12" stroke="black" text-anchor="middle" dominant-baseline="central">18</text>
<circle cx="805" cy="205" r="15" fill="lightgray" />
<text x="805" y="205" font-size="12" stroke="black" text-anchor="middle" dominant-baseline="central">19</text>
<circle cx="805" cy="325" r="15" fill="lightgray" />
<text x="805" y="325" font-size="12" stroke="black" text-anchor="middle" dominant-baseline="central">20</text>
<circle cx="925" cy="85" r="15" fill="lightgray" />
<text x="925" y="85" font-size="12" stroke="black" text-anchor="middle" dominant-baseline="central">21</text>
<circle cx="925" cy="205" r="15" fill="lightgray" />
<text x="925" y="205" font-size="12" stroke="black" text-anchor="middle" dominant-baseline="central">22</text>
<circle cx="925" cy="325" r="15" fill="lightgray" />
<text x="925" y="325" font-size="12" stroke="black" text-anchor="middle" dominant-baseline="central">23</text>
<circle cx="1045" cy="85" r="15" fill="lightgray" />
<text x="1045" y="85" font-size="12" stroke="black" text-anchor="middle" dominant-baseline="central">24</text>
<circle cx="1045" cy="205" r="15" fill="lightgray" />
<text x="1045" y="205" font-size="12" stroke="black" text-anchor="middle" dominant-baseline="central">25</text>
<circle cx="1045" cy="325" r="15" fill="lightgray" />
<text x="1045" y="325" font-size="12" stroke="black" text-anchor="middle" dominant-baseline="central">26</text>
</svg>