<?xml version="1.0" encoding="UTF-8"?>
<svg xmlns="http://www.w3.org/2000/svg" xmlns:xlink="http://www.w3.org/1999/xlink"
     width="1430.0" height="130.0" viewBox="0 0 1430.0 130.0" style="background-color:white">
<defs>
</defs>
<rect x="85" y="80.0" width="120" height="10.0" stroke="green" fill="green" fill-opacity="0.4" />
<rect x="205" y="80.0" width="120" height="10.0" stroke="None" fill="blue" fill-opacity="0.4" />
<rect x="325" y="80.0" width="120" height="10.0" stroke="None" fill="blue" fill-opacity="0.4" />
<rect x="445" y="80.0" width="120" height="10.0" stroke="green" fill="green" fill-opacity="0.4" />
<rect x="565" y="80.0" width="120" height="10.0" stroke="None" fill="blue" fill-opacity="0.4" />
<rect x="685" y="80.0" width="120" height="10.0" stroke="green" fill="green" fill-opacity="0.4" />
<rect x="805" y="80.0" width="120" height="10.0" stroke="None" fill="blue" fill-opacity="0.4" />
<rect x="925" y="80.0" width="120" height="10.0" stroke="None" fill="blue" fill-opacity="0.4" />
<rect x="1045" y="80.0" width="120" height="10.0" stroke="None" fill="blue" fill-opacity="0.4" />
<rect x="1165" y="80.0" width="120" height="10.0" stroke="None" fill="blue" fill-opacity="0.4" />
<circle cx="85" cy="85" r="15" fill="yellow" />
<text x="85" y="85" font-size="12" stroke="black" text-anchor="middle" dominant-baseline="central">0</text>
<circle cx="205" cy="85" r="15" fill="lightgray" />
<text x="205" y="85" font-size="12" stroke="black" text-anchor="middle" dominant-baseline="central">1</text>
<circle cx="325" cy="85" r="15" fill="lightgray" />
<text x="325" y="85" font-size="12" stroke="black" text-anchor="middle" dominant-baseline="central">2</text>
<circle cx="445" cy="85" r="15" fill="lightgray" />
<text x="445" y="85" font-size="12" stroke="black" text-anchor="middle" dominant-baseline="central">3</text>
<circle cx="565" cy="85" r="15" fill="yellow" />
<text x="565" y="85" font-size="12" stroke="black" text-anchor="middle" dominant-baseline="central">4</text>
<circle cx="685" cy="85" r="15" fill="yellow" />
<text x="685" y="85" font-size="12" stroke="black" text-anchor="middle" dominant-baseline="central">5</text>
<circle cx="805" cy="85" r="15" fill="lightgray" />
<text x="805" y="85" font-size="12" stroke="black" text-anchor="middle" dominant-baseline="central">6</text>
<circle cx="925" cy="85" r="15" fill="lightgray" />
<text x="925" y="85" font-size="12" stroke="black" text-anchor="middle" dominant-baseline="central">7</text>
<circle cx="1045" cy="85" r="15" fill="lightgray" />
<text x="1045" y="85" font-size="12" stroke="black" text-anchor="middle" dominant-baseline="central">8</text>
<circle cx="1165" cy="85" r="15" fill="lightgray" />
<text x="1165" y="85" font-size="12" stroke="black" text-anchor="middle" dominant-baseline="central">9</text>
<circle cx="1285" cy="85" r="15" fill="lightgray" />
<text x="1285" y="85" font-size="12" stroke="black" text-anchor="middle" dominant-baseline="central">10</text>
</svg>