<?xml version="1.0" encoding="UTF-8"?>
<svg xmlns="http://www.w3.org/2000/svg" xmlns:xlink="http://www.w3.org/1999/xlink"
     width="390.0" height="390.0" viewBox="0 0 390.0 390.0" style="background-color:white">
<defs>
</defs>
<rect x="85" y="80.0" width="120" height="10.0" stroke="None" fill="blue" fill-opacity="0.4" />
<path d="M85,205 L85,205 L85,325 L205,325 L205,205" stroke="green" fill="green" fill-opacity="0.4" />
<path d="M205,85 L205,85 L205,205 L325,205 L325,85" stroke="green" fill="green" fill-opacity="0.4" />
<rect x="205" y="320.0" width="120" height="10.0" stroke="None" fill="blue" fill-opacity="0.4" />
<path d="M85,85 L85,85 L205,85 L205,205 L85,205" stroke="None" fill="red" fill-opacity="0.1" />
<rect x="320.0" y="85" width="10.0" height="120" stroke="None" fill="red" fill-opacity="0.1" />
<rect x="80.0" y="205" width="10.0" height="120" stroke="None" fill="red" fill-opacity="0.1" />
<path d="M205,205 L205,205 L325,205 L325,325 L205,325" stroke="None" fill="red" fill-opacity="0.1" />
<circle cx="85" cy="85" r="15" fill="lightgray" />
<text x="85" y="85" font-size="12" stroke="black" text-anchor="middle" dominant-baseline="central">0</text>
<circle cx="85" cy="205" r="15" fill="lightgray" />
<text x="85" y="205" font-size="12" stroke="black" text-anchor="middle" dominant-baseline="central">1</text>
<circle cx="85" cy="325" r="15" fill="lightgray" />
<text x="85" y="325" font-size="12" stroke="black" text-anchor="middle" dominant-baseline="central">2</text>
<circle cx="205" cy="85" r="15" fill="lightgray" />
<text x="205" y="85" font-size="12" stroke="black" text-anchor="middle" dominant-baseline="central">3</text>
<circle cx="205" cy="205" r="15" fill="yellow" />
<text x="205" y="205" font-size="12" stroke="black" text-anchor="middle" dominant-baseline="central">4</text>
<circle cx="205" cy="325" r="15" fill="lightgray" />
<text x="205" y="325" font-size="12" stroke="black" text-anchor="middle" dominant-baseline="central">5</text>
<circle cx="325" cy="85" r="15" fill="lightgray" />
<text x="325" y="85" font-size="12" stroke="black" text-anchor="middle" dominant-baseline="central">6</text>
<circle cx="325" cy="205" r="15" fill="lightgray" />
<text x="325" y="205" font-size="12" stroke="black" text-anchor="middle" dominant-baseline="central">7</text>
<circle cx="325" cy="325" r="15" fill="lightgray" />
<text x="325" y="325" font-size="12" stroke="black" text-anchor="middle" dominant-baseline="central">8</text>
</svg>