<?xml version="1.0" encoding="UTF-8"?>
<svg xmlns="http://www.w3.org/2000/svg" xmlns:xlink="http://www.w3.org/1999/xlink"
     width="390.0" height="1170.0" viewBox="0 0 390.0 1170.0" style="background-color:white">
<defs>
</defs>
<path d="M85,85 L85,85 L85,205 L205,205 L205,85" stroke="None" fill="blue" fill-opacity="0.4" />
<path d="M85,325 L85,325 L85,445 L205,445 L205,325" stroke="green" fill="green" fill-opacity="0.4" />
<path d="M85,565 L85,565 L85,685 L205,685 L205,565" stroke="green" fill="green" fill-opacity="0.4" />
<path d="M85,805 L85,805 L85,925 L205,925 L205,805" stroke="None" fill="blue" fill-opacity="0.4" />
<rect x="85" y="1040.0" width="120" height="10.0" stroke="None" fill="blue" fill-opacity="0.4" />
<path d="M205,85 L205,85 L205,205 L325,205 L325,85" stroke="green" fill="green" fill-opacity="0.4" />
<path d="M205,325 L205,325 L205,445 L325,445 L325,325" stroke="green" fill="green" fill-opacity="0.4" />
<path d="M205,565 L205,565 L205,685 L325,685 L325,565" stroke="None" fill="blue" fill-opacity="0.4" />
<path d="M205,805 L205,805 L205,925 L325,925 L325,805" stroke="None" fill="blue" fill-opacity="0.4" />
<rect x="205" y="1040.0" width="120" height="10.0" stroke="None" fill="blue" fill-opacity="0.4" />
<rect x="80.0" y="85" width="10.0" height="120" stroke="None" fill="red" fill-opacity="0.1" />
<rect x="200.0" y="85" width="10.0" height="120" stroke="None" fill="red" fill-opacity="0.1" />
<rect x="320.0" y="85" width="10.0" height="120" stroke="None" fill="red" fill-opacity="0.1" />
<path d="M85,205 L85,205 L205,205 L325,205 L325,325 L205,325 L85,325" stroke="None" fill="red" fill-opacity="0.1" />
<rect x="80.0" y="325" width="10.0" height="120" stroke="None" fill="red" fill-opacity="0.1" />
<rect x="200.0" y="325" width="10.0" height="120" stroke="None" fill="red" fill-opacity="0.1" />
<rect x="320.0" y="325" width="10.0" height="120" stroke="None" fill="red" fill-opacity="0.1" />
<path d="M85,445 L85,445 L205,445 L325,445 L325,565 L205,565 L85,565" stroke="None" fill="red" fill-opacity="0.1" />
<rect x="80.0" y="565" width="10.0" height="120" stroke="None" fill="red" fill-opacity="0.1" />
<rect x="200.0" y="565" width="10.0" height="120" stroke="None" fill="red" fill-opacity="0.1" />
<rect x="320.0" y="565" width="10.0" height="120" stroke="None" fill="red" fill-opacity="0.1" />
<path d="M85,685 L85,685 L205,685 L325,685 L325,805 L205,805 L85,805" stroke="None" fill="red" fill-opacity="0.1" />
<rect x="80.0" y="805" width="10.0" height="120" stroke="None" fill="red" fill-opacity="0.1" />
<rect x="200.0" y="805" width="10.0" height="120" stroke="None" fill="red" fill-opacity="0.1" />
<rect x="320.0" y="805" width="10.0" height="120" stroke="None" fill="red" fill-opacity="0.1" />
<path d="M85,925 L85,925 L205,925 L325,925 L325,1045 L205,1045 L85,1045" stroke="None" fill="red" fill-opacity="0.1" />
<circle cx="85" cy="85" r="15" fill="lightgray" />
<text x="85" y="85" font-size="12" stroke="black" text-anchor="middle" dominant-baseline="central">0</text>
<circle cx="85" cy="205" r="15" fill="lightgray" />
<text x="85" y="205" font-size="12" stroke="black" text-anchor="middle" dominant-baseline="central">1</text>
<circle cx="85" cy="325" r="15" fill="lightgray" />
<text x="85" y="325" font-size="12" stroke="black" text-anchor="middle" dominant-baseline="central">2</text>
<circle cx="85" cy="445" r="15" fill="lightgray" />
<text x="85" y="445" font-size="12" stroke="black" text-anchor="middle" dominant-baseline="central">3</text>
<circle cx="85" cy="565" r="15" fill="yellow" />
<text x="85" y="565" font-size="12" stroke="black" text-anchor="middle" dominant-baseline="central">4</text>
<circle cx="85" cy="685" r="15" fill="lightgray" />
<text x="85" y="685" font-size="12" stroke="black" text-anchor="middle" dominant-baseline="central">5</text>
<circle cx="85" cy="805" r="15" fill="lightgray" />
<text x="85" y="805" font-size="12" stroke="black" text-anchor="middle" dominant-baseline="central">6</text>
<circle cx="85" cy="925" r="15" fill="lightgray" />
<text x="85" y="925" font-size="12" stroke="black" text-anchor="middle" dominant-baseline="central">7</text>
<circle cx="85" cy="1045" r="15" fill="lightgray" />
<text x="85" y="1045" font-size="12" stroke="black" text-anchor="middle" dominant-baseline="central">8</text>
<circle cx="205" cy="85" r="15" fill="lightgray" />
<text x="205" y="85" font-size="12" stroke="black" text-anchor="middle" dominant-baseline="central">9</text>
<circle cx="205" cy="205" r="15" fill="lightgray" />
<text x="205" y="205" font-size="12" stroke="black" text-anchor="middle" dominant-baseline="central">10</text>
<circle cx="205" cy="325" r="15" fill="yellow" />
<text x="205" y="325" font-size="12" stroke="black" text-anchor="middle" dominant-baseline="central">11</text>
<circle cx="205" cy="445" r="15" fill="lightgray" />
<text x="205" y="445" font-size="12" stroke="black" text-anchor="middle" dominant-baseline="central">12</text>
<circle cx="205" cy="565" r="15" fill="lightgray" />
<text x="205" y="565" font-size="12" stroke="black" text-anchor="middle" dominant-baseline="central">13</text>
<circle cx="205" cy="685" r="15" fill="lightgray" />
<text x="205" y="685" font-size="12" stroke="black" text-anchor="middle" dominant-baseline="central">14</text>
<circle cx="205" cy="805" r="15" fill="lightgray" />
<text x="205" y="805" font-size="12" stroke="black" text-anchor="middle" dominant-baseline="central">15</text>
<circle cx="205" cy="925" r="15" fill="lightgray" />
<text x="205" y="925" font-size="12" stroke="black" text-anchor="middle" dominant-baseline="central">16</text>
<circle cx="205" cy="1045" r="15" fill="lightgray" />
<text x="205" y="1045" font-size="12" stroke="black" text-anchor="middle" dominant-baseline="central">17</text>
<circle cx="325" cy="85" r="15" fill="yellow" />
<text x="325" y="85" font-size="12" stroke="black" text-anchor="middle" dominant-baseline="central">18</text>
<circle cx="325" cy="205" r="15" fill="lightgray" />
<text x="325" y="205" font-size="12" stroke="black" text-anchor="middle" dominant-baseline="central">19</text>
<circle cx="325" cy="325" r="15" fill="lightgray" />
<text x="325" y="325" font-size="12" stroke="black" text-anchor="middle" dominant-baseline="central">20</text>
<circle cx="325" cy="445" r="15" fill="lightgray" />
<text x="325" y="445" font-size="12" stroke="black" text-anchor="middle" dominant-baseline="central">21</text>
<circle cx="325" cy="565" r="15" fill="lightgray" />
<text x="325" y="565" font-size="12" stroke="black" text-anchor="middle" dominant-baseline="central">22</text>
<circle cx="325" cy="685" r="15" fill="lightgray" />
<text x="325" y="685" font-size="12" stroke="black" text-anchor="middle" dominant-baseline="central">23</text>
<circle cx="325" cy="805" r="15" fill="lightgray" />
<text x="325" y="805" font-size="12" stroke="black" text-anchor="middle" dominant-baseline="central">24</text>
<circle cx="325" cy="925" r="15" fill="lightgray" />
<text x="325" y="925" font-size="12" stroke="black" text-anchor="middle" dominant-baseline="central">25</text>
<circle cx="325" cy="1045" r="15" fill="lightgray" />
<text x="325" y="1045" font-size="12" stroke="black" text-anchor="middle" dominant-baseline="central">26</text>
</svg>